[
	{
		"Type":"Consumable.Potion",
		"Name":"Small Potion",
		"Description": "Heals 20 HP.",
		"Health": 20,
		"Rarity": 255
	},
	{
		"Type":"Equipment.ShortSword",
		"Name":"Short Sword",
		"Description":"A short sword.",
		"ATK":10,
		"Rarity": 100
	},
	{
		"Type":"Equipment.ShortSword",
		"Name":"Electro Short Sword",
		"Description":"Practically a taser.",
		"ATK":10,
		"Rarity": 50,
		"Element": "Electric",
		"TreasureOnly": true
	}
]